Nodes/Edges;1;2;3;4;5;6;7;8;9;10;11;12;13
START;-;-;-;-;-;-;-;-;-;-;-;-;A
A;B;-;C;-;-;-;-;-;-;-;-;-;-
B;-;A;-;C;-;-;-;-;-;-;-;-;-
C;-;-;-;-;-;D;-;E;-;-;-;-;-
D;-;-;-;-;C;-;E;-;-;-;-;-;-
E;-;-;-;-;-;-;-;-;END F;-;G;-;-
END F;-;-;-;-;-;-;-;-;-;-;-;-;-
G;-;-;-;-;-;-;-;-;-;END H;-;E;-
END H;-;-;-;-;-;-;-;-;-;-;-;-;-
